	50.000000	10.012820	-177.908420
	107.721735	10.033337	179.750836
	232.079442	10.031943	179.030190
	500.000000	10.024357	179.096910
	1077.217345	10.003595	179.026618
	2320.794417	10.003498	176.770111
	5000.000000	9.857485	175.080827
	10772.173450	9.700295	168.011249
	23207.944168	9.064139	159.033802
	50000.000000	7.447126	138.488025
	107721.734502	4.732770	113.588956
	232079.441681	2.346877	86.576876
	500000.000000	1.019062	61.120750
	1077217.345016	0.393716	23.768431
	2320794.416806	0.151264	-33.187921
	5000000.000000	0.035463	-147.904815
